Systems should be designed to minimize risk of injury to the workforce and public during installation maintenance and operation.,RAMS
The solution must be built using a Relational Database Management System (i.e. DB2 SQL Server Oracle).,CS
Components which retain hazardous energy potential shall be designed to prevent a crew member conducting maintenance from releasing the stored energy potential or be designed with provisions to allow safing of the potential energy including provisions to confirm that the safing was successful.,EE
The depth of cable pipes or ducts beneath railway lines or roads shall be not less than 1.1 m below the formation level.,ME
In support of External Interface requirements commonly supported web browsers will be used to implement a thin-client architecture.,CS
All pipe line equipment associated with the water services in the building is to have a normal pressure rating no less than 10.0 bar.g.,ME
The subsystem shall be designed such that in all operating modes where the power available from the solar cell generator exceeds the main bus and battery charge demand the surplus electrical energy is left in the solar arrays.,EE
A battery cell must be charged with constant current-constant voltage.,EE
The system requires a back-end private network environment in order to ensure that end-user operations (on the front-end) are not impeded by database backups index propagations or other large back-end data transfers.,CS
The solution must be built using a component based framework.,CS
The International Space Station shall be one failure tolerant to prevent loss of an EVA crewmember due to inadvertent separation from International Space Station.,RAMS
No undesirable operating mode shall occur in the event of a failure in other subsystems (including harness) or in one or more experiments.,RAMS
Systems should be able to protect themselves from internal failures and utility grid disturbances.,RAMS
The design of the Propulsion System shall be such that a single component/part failure cannot as far as practicable cause the failure of functions which are vital for mission success.,RAMS
The welding electrodes equipment and process shall also be subject to the Architect’s approval and in accordance with Arc Welding Power Sources Equipment and Accessories.,ME
The system will use where appropriate the standard hardware and data communications resources provided by the ARS OCIO at the ARS George Washington Carver Center in Beltsville MD.,CS
Data and application backups will be managed through fully supported backup software solutions.,CS
The electromagnetic radiation generated by the vehicle representative of its type shall be measured using the method described in Annex 2.,EE
Unless otherwise agreed the STM shall be designed so as not to require regular periodic maintenance.,RAMS
The solution must be web-based bowser agnostic without extensions or plug-ins.,CS
Discrimination is required between the sub-circuit fuses and control circuit transformer protection fuses.,EE
Where not specified in detail the subsystem shall provide adequate failure tolerance and protection circuitry to avoid failure propagation and to ensure recovery from any malfunction within the subsystem and/or load failure.,RAMS
The use of normal bends must be kept to a minimum with exception of larger diameter conduits where the use of such bends is essential.,ME
The Mean Repair Time (MRT) for the LBJ aircraft modification shall not exceed 2.0 hours.,RAMS (ME)
The spacecraft shall support periodic (not more than once per 6 month) maintenance of life time limited elements of payload experiments.,RAMS
The installation of the Enhanced ALQ-172 and LBJ shall preserve sufficient console space at the Electronic Warfare (EW) Officers Crew Station and provide the interfaces required for the future installation of a consolidated EW display subsystem.,EE
If maintenance is needed the Mean Time to Repair (MTTR) shall be less than 2 h.,RAMS
The Mean Repair Time (MRT) for the LBJ aircraft modification shall not exceed 2.0 hours.,RAMS
For control line models a restraining cable (minimum 0.035 stranded wire) shall be attached from the engine to the bellcrank mounting system.,ME
Rosetta software development shall be subject to review by an independent software validation (ISV) team.,CS
Minimum chrome plating thickness shall be 0.001 in. on land-based aircraft and 0.0035 in. on carrier-based aircraft.,ME
The power subsystem shall contain all electronics to charge discharge and recondition all batteries.,EE
For the maintenance of the system the presence of spare parts and specialized personel at the airport is needed.,RAMS
RAM allocated to one processor shall not be accessible by another processor.,CS
The discontinuous transmissions availability shall be not less than 0.999992.,ME
The wiring shall be joined to the conduit (or cable) installation by interconnecting the conductor and the earth conductors in a draw-box using suitable ferrules and heat-shrink sleeves or screwed terminals.,EE
The subsystem shall be designed such that in all operating modes where the power available from the solar cell generator exceeds the main bus and battery charge demand the surplus electrical energy is left in the solar arrays.,EE
When conductors are drawn through conduit care shall be taken that they are not kinked or twisted.,EE
The subsystem shall be designed such that in all operating modes where the power available from the solar cell generator is still insufficient to satisfy the load demand battery discharge regulators will provide the required electrical power from batteries automatically.,EE
Pure force thrusters for orbit manoeuvres shall have minimum residual torques.,ME
All software code shall be dynamically analysed by a standard tool.,CS
Full protection against short circuit or overload at all outputs shall be provided by limiting the maximum current in any of those lines.,EE
The use of Browser plug-ins will be judiciously restricted on an as-needed basis.,CS
All fluids power components seals external paint etc. shall be compatible with the fluid to be used.,ME
The system will make data available in standardized data formats such as tab-delimited text for use on users’ client systems including local installations of ARC GIS software or other off-line software applications.,CS
The Rocket Recovery System battery life should last for at least one launch  cycle.,EE
The power subsystem shall contain all electronics to provide electrical power from the solar cell generator and/or batteries to all users.,EE
The spacecraft shall maintain a list of available suspected and failed hardware units.,RAMS
Hydraulic equipment shall be designed to withstand the maximum pressure to which they may be subjected plus 50\% over-rating.,ME
For clearly identified critical mission phases fail-operational shall be implemented.,RAMS
With the exception of three-phase outlets circuits connected to different phases shall not normally be present at lighting switch or socket outlet boxes.,EE
Test tools used in the development testing of Rosetta software shall support the same telemetry and tele-command data base as used in the system level testing.,CS
The crew shall be protected from electrical hazards in accordance with SSP 50005.,EE
The crew shall be protected from electrical hazards in accordance with SSP 50005.,RAMS
On the vehicle representative of its type the measured values expressed in dB microvolts/m shall be below the type approval limits.,EE
Holes in covers or in gates for screwed portions or spindles shall have full threads of a length not less than the diameter of the spindle over the threads.,ME
The main rod must be of large diameter to give sufficient rigidity and bearing surface to accept running and cornering loads.,ME
With the exception of hand-launched aircraft with a flight weight under 7.5 pounds wet controllable rudders are required on all RC aircraft.,ME
All metal fabrication work shall be free from deformations distortions open joints and sharp edges/corners at commissioning.,ME
End Item interconnect and interconnect cable and wire design shall be in accordance with SSP 30242.,EE
Regulating valves on circuits shall have characterised plugs and a lockable indicator on the spindle to show the proportional opening.,ME
The system should work on most home desktop and laptop computers which support JavaScript and HTML5.,CS
Alarms and Warnings are to be relayed to the B.M.S. supervisor.,RAMS
From this point it shall be possible to select a further software load from PROM RAM SSMM or any combination.,CS
A neutral conductor shall be installed to all three phase outlets intended for equipment connection whether sockets or isolators irrespective of whether the particular equipment normally requires a neutral or not.,EE
Landing speed and weight for the aircraft shall not be less than those defined in MIL-A-8860 or MIL-S-8698 as applicable.,ME
The database management system should be stable and secured have high performance (in terms of speed and efficiency/effectiveness) and be easy to maintain.,CS
A fine-tooth hacksaw should be used to cut conduit to the required length.,ME
There shall be two separate levels of FDIR Redundancy Management FDIR level and System Safety level Safe Mode.,RAMS
Each control panel is to be provided with an integral twist-to-reset Red emergency stop button clearly identified.,EE
Each control panel is to be provided with an integral twist-to-reset Red emergency stop button clearly identified.,RAMS
Measure capacity with constant discharge current of 0.2 C to 2.75V cut-off at each temperature after complete charge at 20°C.,EE
Static inflation pressure shall not exceed 2500 psi and the gear shall be capable of satisfactory operation at all temperatures between -65 and + 160°F and under all applicable load conditions.,ME
The solution must be compatible with Microsoft Internet Explorer 6.0 or higher and/or Mozilla FireFox.,CS
The equipment ground connection on the outlet must be connected to a grounding connection at the electrical panel.,EE
The pop-up message will remain in focus until the user responds to the message and would repeat in X (i.e. 5) minute intervals until the sample is complete.,CS
Heating and cooling water lines shall be copper galvanized PVC or stainless steel.,ME
It shall provide adequate distribution and separation of all power supplies signals scientific data lines and pyrotechnic firing pulses and all connections to the umbilical safe/arm brackets/connectors and test connectors.,EE
The DMS shall be able to pause a data transfer to perform a higher level function without loosing data from the transfer.,CS
The END ITEM shall maintain fault tolerance or established safety margins consistent with the hazard potential without ground or flight Space Shuttle Program services.,RAMS
The probability that a message transmitted by continuous transmission systems is not corrupted shall be not less than 0.9999999932.,CS
Hardware buffering on all data transmission paths shall be sufficient to allow a polled structure of the software all the way through the data path.,CS
Each hydraulic reservoir shall have metal tag affixed near reservoir fill spout to identify the appropriate hydraulic fluid.,ME
All attitude and orbit control and measurement functions shall be redundant.,RAMS
This information shall be updatable by dedicated telecommand and available in telemetry.,RAMS
The technical availability (Aa) of the STM module shall be at least 0.9999885.,RAMS
The database structure should be as complete as possible during the design stage but there should be a room for modification without a large overhaul during later phases.,CS
No single component failure shall cause an over-voltage or permit short circuit on the main bus.,EE
Clearances between the tire and adjacent parts of the aircraft shall be based upon a 3\% growth in tire section width and height from the MIL-T-5041 dimensions.,ME
MSS electrical design shall ensure that shorts between any pin within a connector that could be caused by a pin bent prior to or during connector mating cannot invalidate more than one inhibit to a hazardous function.,EE
The solution architecture must be configured so that access to databases is via the business rules and validates all data to keep the databases clean and protected.,CS
The processing power of the microcontroller will be fast enough to make stability correction that ensure smooth flight through the end of the burn.,EE
The gear shall be retractable in not more than l0 s.,ME
The minimum tolerable availability related to hardware MINOR failures shall be 0.995.,RAMS
At the design landing weight the sink rate shall be 5.0 + 0.06 Vso ft/s but not less than 7 ft/s and not more than 10 ft/s.,ME
For rotary wing aircraft: The output power of the turbine shall be governed such that the rotor head speed does not exceed the manufacturer’s recommended RPM for any rotor head component.,ME
All spacecraft consumables shall be sized to allow for the total operational life from launch to end of nominal operational life.,RAMS
The ERTMS/ETCS quantifiable contribution to operational availability due to hardware failures shall be not less than 0.999854.,RAMS
he system needs to be able to store hundreds of megabytes of data on demand.,CS
Discharge current must be below 2C /cell.,EE
Conduit of nominal size up to and including 25mm may be cold bent by hand provided that the radius of the bend is greater than six times the nominal size of the conduit and that the external angle of the bend does not exceed 90°.,ME
The ohmic resistance of an effective earth must be low enough to ensure that the step potential on the ground in the vicinity of the earthing point is within safe limits under fault conditions i.e. a voltage gradient not exceeding 40 V/m for fault durations exceeding 1s.,EE
The insertion depth should be marked on the conduit end and the adhesive applied (by means of a soft clean brush) as quickly as possible to the surfaces to be bonded by brushing lengthwise along the conduit ensuring that a thin coating of uniform thickness is formed.,ME
The probability that a message transmitted by discontinuous transmission systems is not corrupted shall be not less than 0.9999999914.,RAMS
The deferment of any defect rectification shall be submitted to the operator and if applicable to its competent authority.,RAMS
Conductors that are connected to different switchboards shall not be installed in the same wireway.,EE
The application codes generated during prototyping may not run properly when re-hosting the data system to a non-Windows OS or transferring the data system to another location.,CS
Electrical ignition sources shall not be exposed.,EE
They are to have a 36-hour battery reserve which is self recharging.,EE
Flexible couplings shall be used between pump and motor.,ME
Convergence criteria shall be established for each algorithm.,CS
The use of assembler code in Rosetta software shall be shown to be absolutely necessary to achieve the required performance to the satisfaction of ESA before it is implemented.,CS
A charged battery cell is to be crushed between two flat surfaces.,EE
Percentage as an index of the capacity compared with 100\% at 20℃.Keep the battery at 40°C and 90\%RH goal is 95\% for 48 hrs and then discharge at 1C to 2.75V Cut-off Voltage.,EE
Debug should be used as needed for the development of the Level 2 module.,CS
Redundancy and protection circuitry shall be provided to avoid failure propagation and enable recovery to specification requirements from any malfunction within the subsystem and/or loads.,RAMS
The size of the non-volatile memory shall allow for a 20\% free area for use during the mission for the storage of code patches and new software.,CS
Hot redundancy shall be provided for functions which are essential for a continuous uninterrupted operation needed for mission success.,RAMS
Developed software must be maintained in the ODJFS Dimensions software configuration management repository.,CS
The subsystem shall be designed such that in all operating modes where the power demanded from the main bus exceeds the available power from the solar cell generator the battery charging will be stopped and a maximum power point tracker (MPPT) will operate the solar cell generator in its maximum power point automatically.,EE
The minimum tolerable availability related to hardware IMMOBILISING failures shall be 0.9999854.,RAMS
The corresponding mean downtime per year due to continuous transmission errors shall be 4.2 minutes.,RAMS
All motors are to be single shaft foot mounted and totally enclosed; motors are to be fan cooled.,ME
The Rosetta software maintenance environment shall provide the means to generate and prepare software patches or full images for uplink to the spacecraft as telecommands.,CS
As the Web will be the primary delivery protocol for the application HTTP and related GIS server applications will be required to support system functionality.,CS
Hydraulic systems shall be designed to operate within a maximum pressure of 3,000 psi.,ME
The TCS shall be tolerant to any single failure at system or unit level.,RAMS
The SVF shall use the content of the Rosetta System Data Base (RSDB) for all parameters that correspond to real or derived Command and Telemetry parameters on the ground-space and space-ground link.,CS
The SVF shall allow Software Verification to be performed before and after the software is integrated at subsystem level.,CS
The maximum contribution of IMMOBILISING hardware failures to the ERTMS/ETCS unavailabilities shall not exceed the 10\%.,RAMS
The contents of the DDC configuration database shall be editable with a text editor or an appropriate database editor.,CS
All unarmoured conductors shall be installed in conduits cable channels (trunking) or power skirting and shall under no circumstances be exposed.,EE
Electrical systems must be wired with either fuses or circuit breakers.,EE
The Rosetta software maintenance environment shall be integrated with the SVF.,CS
The 30-3 dynamic torque sequence shall be conducted with 3 sequences of 10 land plane landing design gross weight stops followed by 1 maximum landing gross weight stop.,ME
The Mean Repair Time (MRT) for the LBJ aircraft modification shall not exceed 2.0 hours.,RAMS
When wiring is installed in removable partitions the vertical and/or horizontal metal supports of the walls may be utilised for wiring on condition that the conductors are not exposed.,EE
The current of a constant-current supply should be stable and adjustable.,EE
The quantifiable contribution to operational availability due to continuous transmission errors shall be not less than 0.999992.,RAMS
The power subsystem shall contain all electronics to give the capability for automatic and commanded control of the operation of the subsystem.,EE
The minimum tolerable availability related to hardware SERVICE failures shall be 0.99987.,RAMS
RAM shall contain at least 30\% free (unused) memory after coding and testing has been completed it shall be possible to use this free area for code and / or data areas.,CS
 Conductive contamination shall not cause shorts between conductors within a connector that cause the removal of more than one inhibit to a hazardous function.,EE
All Rosetta on-board software running in sub-systems shall be developed using the same development environment.,CS
On land-based aircraft the operating pressure shall be that appropriate to 32\% tire deflection at static load.,ME
Local operator panels shall contain full current isolator for motors with early break late make contact in starter control circuit up to 55kW.,EE
All RAMPROM SSMM memory shall support direct patching including the areas where memory management is used.,CS
A detachable safety guard shall be fastened over the coupling and shafts.,ME
Maximum size of sheet shall be 24\" x 36\".,ME
All cable depth measurements shall be made to the top of the cable when laid directly in ground or to the top of the duct or sleeve where these are provided.,EE
The distance between the outer ends of the bearings shall be not less than 2.75 times the piston outside diameter.,ME
The voltage regulation accuracy shall be ground testable via a unit connector.,EE
Software will use a simple cyclic executive with the minimum of hardware interrupts.,CS
Four octets of coarse time and 16 bits of fine time shall be implemented.,CS
Piping and tubing shall not be routed where it can serve as a step for personnel operating or repairing the machine.,ME
Use of formal methods to define elements of the Rosetta on-board software shall be shown to be beneficial to the development of those software elements and agreed by ESA.,CS
The data collection algorithm shall be automatically optimised in a configurable way according to available sources and on-board resources.,CS
The corresponding mean downtime per year due to discontinuous transmissions failures shall be 4.2 minutes.,RAMS
Where a vehicle or electrical/electronic system or ESA does not include an electronic oscillator with an operating frequency greater than 9 kHz it shall be deemed to comply with paragraphs 5.3.2 or 5.6.2 above and to Annexes 3 and 6.,EE
Batch processes should use the BMC - Enterprise Manager (EM) scheduling suite.,RAMS
Monitoring shall be available to the launch site when necessary to assure safe ground operations.,RAMS
The harness performs the electrical connection between all electrical and electronic equipment in the ROSETTA spacecraft.,EE
Maintenance personnel shall use Built in Test (BIT) to facilitate LBJ maintenance and verify equipment condition and operability.,RAMS
The spacecraft shall allocate a mass for the SREM of 2 kg.,ME
Pure torque thrusters for attitude control and wheel off-loading shall have minimum residual forces.,ME
All metal fabrication work shall have all sharp edges de-burred and corners rounded where appropriate; with the minimum amount of material removed to achieve a safe and functional result.,ME
Where the design margin on nominal lifetime is not identified or where the design margin is required for demonstration or resistance to failure modes a factor of 2 times the nominal lifetime shall be included as a minimum (R).,RAMS
Loss of input or failure of the monitor shall cause a change in the state of the indicator.,RAMS
The 3-conductor plug on the tool must be plugged into a grounded outlet.,EE
Holes to accommodate brass bushes shall be large enough to accommodate the bush with a minimum of clearance.,ME
In case of this kind of maintenance the manufacturer shall specify any necessary or prohibited maintenance procedures and the Mean Time between (Planned) Maintenance (MTBM).,ME
In case of this kind of maintenance the manufacturer shall specify any necessary or prohibited maintenance procedures and the Mean Time between (Planned) Maintenance (MTBM).,RAMS
The application is Linux-based and should be compatible with other systems. Apache PHP and MySQL programs are practically independent of the OS-system which they communicate with.,CS
Each appliance shall be connected to a separate circuit.,EE
The subsystem shall be designed such that large circulating currents between the solar cell generator and the S/C are avoided.,EE
There shall be no practical damage such as conspicuous liquid electrolyte leakage flaw electrolyte leakage rust dirt and deformation.,EE
Electrical Bonding shall be in accordance with SSP 30245.,EE
The maximum contribution of Service hardware failures to the ERTMS/ETCS unavailabilities shall not exceed the 90\%.,CS
The system will use common everyday 9 volt batteries.,EE
The software shall normally run in RAM.,CS
Only portable libraries or code shall be used.,CS
Software shall protect itself against infinite loops computational errors and possible lock ups resulting from an undetected hardware failure.,CS
For fast and economic maintenance all systems and parts must be modular and easily replaceable.,RAMS
Cadmium-plated bolts and nuts shall be used except where the installation is exposed to the weather in which case brass bolts and nuts shall be used.,ME
The TCS shall be protected against any single point of failure of any item of the chain of the temperature measurements by appropriate redundancy.,RAMS
Electrical Grounding shall be in accordance with SSP 30240.,EE
The design of all electronic circuits shall be such as to provide appropriate control loop stability margins.,EE
The code required to boot up a processor shall be shown to be optimised for reliability and the time taken to initialise.,CS
Voltmeter should have a precision of ±0.5 % or higher.,EE
It shall be possible migrate/move All software to another hardware platform as old platforms become not supported by the manufacturers OR  The hardware platform shall be supported over the full life of the mission by the manufacturers.,CS
Flange mounted integral brakes special shaft lengths or other special motors require approval.,ME
Creative must not auto-download additional media spawn additional ads or ask the user to download plug-ins.,CS
The screws shall be screwed completely down to prevent damage to the thread on the screw.,ME
Redundancy and protection circuitry shall be provided to avoid failure propagation and enable recovery to specification requirements from any malfunction within the subsystem and/or loads.,EE
The batteries shall supplement the solar generator power for peak power requirements (e.g. power surges transients etc.) in nominal orbit if necessary.,EE
The strut shall be designed to use MIL-H-5606 hydraulic fluid.,ME
Notification of changes in the status of safety monitors shall be available to the flight crew in either near-real time or real time.,RAMS
Copper tubing shall not be used for conveying hydraulic fluids.,ME
Hydraulic piping and tubing shall not be bundled.,ME
The battery cell is to be short-circuited by connecting the positive and negative terminals of the battery with an external load of less than 100 mΩ until the surface temperature decrease 10 degree from the highest point.,EE
Cantilevered trays shall be supported by a minimum of two 6mm diameter expansion bolts per support.,ME
The integrated aircraft system excluding the Group B shall have a service life of 30,000 hours using the AC-130U and MC-130H System Specification defined mission profiles.,RAMS
Where this is unavoidable barriers shall be provided between terminals or connections of the various phases and the box shall be suitably labelled internally to indicate the presence of three phase voltages.,EE
The PROM storage shall provide a bit failure rate of less than 1 in 1013 after ten years.,RAMS
At the design takeoff weight the sink rate shall not be less than 6 ft/s.,ME
Software units which are changed following formal verification shall undergo full regression testing.,CS
Where pumps are operated in parallel valves shall be installed to permit removal of one pump while other pumps remain in operation.,ME
The battery cell shall be accelerated 1000 times at 100m/s2  for durations of 16mS.,EE
Rosetta on-board software shall be developed using a high level language except where explicitly exempted.,CS
As a goal the MTBCF should be greater than 120 hours.,RAMS
To demonstrate that there is sufficient oil above the orifice to avoid foaming two successive drops shall be made within 5 min and then repeated after removing oil corresponding to 0.5 in.,ME
Application Servers and Database servers must be load balanced at the application level to ensure maximum stability and availability.,CS
The system shall provide sufficient damping to reduce shimmy oscillation amplitude to one-fourth or less of the original disturbance after three cycles.,ME
The clearance between pipework (or the lagging) and the wall and any other fixtures shall be not less than 25 mm.,ME
A minimum tire section width of 6 in. shall be provided on carrier aircraft.,ME
All software code shall be statically analysed by a standard tool.,CS
The solution must be able to operate within the ODJFS firewalls.,CS
The power conditioning shall be designed such that a regulated 28 Volt main bus is provided to all users.,EE
The TCS shall be protected against the failure of any active device (e.g. heaters louvers blinds....) by appropriate redundancy of the complete chain.,RAMS
An info shall also be logged at module startup and module termination.,CS
The main bus voltage regulation requirements shall be in accordance with the requirements of PSS-02-10.,EE
Radiation hazards: during its lifetime the spacecraft and its components will receive an integrated dose that can degrade their performance and possibly cause failures.,RAMS
Where possible failure recovery actions shall first attempt a software reboot before considering a hardware reconfiguration of the affected units.,CS (RAMS)
The system must allow for the speedchart and coding data to be loaded from the INF44PO File.,CS
If an onboard processor is switched from a main to a redundant unit (or vice versa) the switchover shall be such that operations can continue safely.,EE
All software production and test shall follow the ESA standard PSS-05 Issue 2 as applicable or other software standards agreed by the Agency for Rosetta.,CS
As the primary data storage mechanism for the corporate standard relational database management system Microsoft SQL Server will be required to support system functionality.,CS
The tank mass margin allocated during the subsystem design phase shall be used in the design of the tank to optimize the tank volume.,ME
The battery cell charged completely will be charged continuously for 8hrs with the external power supply of the limit voltage of 4.6V and the current of 3A.,EE
Pneumatic systems shall be designed to operate within a pressure range of 60 to 70 pounds per square inch gauge.,ME
Any time switches unless otherwise specified are to have a 7-day dial sub-divided into hours or the electronic equivalent.,RAMS
The batteries shall be sized to cover all nominal spacecraft demand during the entire duration of the mission in cases of insufficient or no solar generator power.,EE
All User and Application data as well as software installation and configuration files must be fully backed up week-nightly.,CS
The spacecraft shall have a nominal lifetime of 1 year in flight from end of commissioning phase to end of nominal operational life (R).,RAMS
At the threads for the wheel bearing retainer nut there shall be two cotter pin holes at 90 deg spacing.,ME
Full protection against short circuit or overload at all outputs shall be provided by limiting the maximum current in any of those lines.,EE
Screws shall be installed in all tapped holes in fittings and accessories to prevent damage to the screw thread by concrete or plaster.,ME
Screws shall be installed in all tapped holes in fittings and accessories to prevent damage to the screw thread by concrete or plaster.,AMS
For RC fixed wing aircraft: The maximum velocity will be 200 mph.,ME
Trays shall be bolted to supports by at least two round head bolts per support.,ME
The pump shall have cast iron casing gun metal impeller and stainless steel shaft and shall be suitable for an operating temperature of up to 100°C.,ME
The LBJ integrated diagnostics shall have the ability to unambiguously isolate to the faulty unit 95 percent of the time; the built in test false alarm rate shall be less than 5 percent.,RAMS
The anemometer mounted on the IRBS will be used to feed wind speed data to the IRBS microcontroller.,ME
The propellant feeding to supply the AOCMS thrusters with propellants shall be performed in pressure blow down mode for the entire mission.,ME
The corresponding mean downtime per year due to MINOR failures shall be 43 hours 48 minutes.,RAMS
The system must have the ability to Display a Local Agency Synchronization screen displaying the status and any identified differences between the state system values and the CFIS Web values based on the results of the overnight batch process.,CS
Discharge end voltage must be over 2.75V/cell.,EE
Welding shall be carried out or supervised by appropriately qualified tradespersons compliant with AS 1796 Certification of welders and welding supervisors.,ME
Pumps shall not be mounted inside the oil reservoir.,ME
The system shall use the current corporate standard Microsoft SQL Server database engine.,CS
All banners with a white background must have a non-white border of 1 pixel.,CS
Single pole switches shall be connected to the phase conductor and not to the neutral conductor.,EE
The RAM-based allocation of software Integrity Levels shall be performed only once the assignment of the SIL-related Integrity Levels has been carried out.,CS
The solution must accommodate the use of Informatica to perform Extract Transformation and Loading (ETL) functions by downstream processes.,CS
An effective earth must prevent dangerous over voltages arising between metallic structures frames supports or enclosures of electrical equipment and the ground during fault conditions.,EE
The nose wheel shall swivel through 360 deg without manually disconnecting the steering linkage.,ME
Systems should be able to protect themselves from various types of grid faults and other abnormal conditions on the grid.,RAMS
Alternate or redundant functional paths shall be separated or protected such that any single credible event which causes the loss of one functional path will not result in the loss of the redundant functional path(s).,RAMS
Conductors enclosed in a copper braiding (harness wiring) may be installed in removable partitions.,ME
Whenever overcenter links are used a positive integral mechanical lock shall be provided at the knee.,ME
All welding shall be carried out only by welders of the recognized proficiency and to the satisfaction of the Architect.,ME
Failures that cannot be handled at a given level shall be handed over to the next higher operational instance the highest one being the Ground.,RAMS
The wing must have enough volume to contain all the fuel required for a specified long range mission.,ME
For failures whose resolution implies safeguarding of system functions the offending unit subsystem or function shall be disabled or switched off.,RAMS
All data models must comply with the ODJFS Information Services Policies Standards and Procedures.,CS
The system shall provide dynamic and damping stability for all ground speeds up to 1.3Vs.,ME
Software already produced and embedded in a pre-designed unit that does not require any modification to the software for Rosetta shall be the subject of a formal review of it Documentation(design test and maintenance) coding standards together with a code inspection.,CS
Electrical power distribution circuitry shall include protective devices to guard against circuit overloads which could result in distribution circuit damage excessive hazardous products in pressurized areas and to prevent damage to other safety critical circuits.,EE
If measurements are made using the method described in Annex 2 using a vehicle-to-antenna spacing of 3.0 ± 0.05 m the limits shall be 42 dB microvolts/m in the 30 to 75 MHz frequency band and 42 to 53 dB microvolts/m in the 75 to 400 MHz frequency band this limit increasing logarithmically with frequencies above 75 MHz as shown in Appendix 3.,EE
The batteries shall supplement the solar generator power for peak power requirements (e.g. power surges transients etc.) in nominal orbit if necessary.,EE
Aircraft deceleration and dynamometer deceleration shall be consistent with the approved brake energy analysis.,ME
After complete charge the battery cell will be discharged to end voltage.,EE
The Tridyne valve unit shall be a bi-state (on/off) electrically actuated device controlled by the on-board electronics.,EE
Where luminaries are specified which are fixed directly to the pendant box the pendant box shall be fixed independently of the conduit installation except where the pendant box is cast into concrete.,ME
The spacecraft shall manage the isolation of failed/suspected units and the switching where possible to redundant units to avoid failure propagation (R).,RAMS
All pressure controls shall be marked to indicate minimum and maximum pressures by means of stamped metal or engraved plastic plates held by mechanical means adjacent to the control.,ME
The power subsystem shall also include all power switching and protection electronics for the experiments and other spacecraft subsystem users.,EE
Data uploading and management will likely be done as infrequently as once a year.,CS
The battery cell will be vibrated 10 sine sweeps in three mutually perpendicular directions with amplitude of 0.19-0.38mm and changing frequency between 10 and 55Hz.,EE
A single failure of an Orbital Replaceable Unit (ORU) in a functional path within the End Item shall not induce any other failures external to the failed ORU.,RAMS
Servos actuators and electric motors will need to be powerful enough to move the weight.,ME
The ERTMS/ETCS quantifiable contribution to operational availability due to transmission errors shall be not less than 0.999984.,RAMS
On aircraft with retractable landing gears the mechanisms shall be designed to accomodate the loads occurring in the flight conditions.,ME
An Info shall be logged when a significant condition occurred that directly or indirectly affects the level 2 module outputs.,RAMS
As a secondary delivery protocol for alerts data and other information from the system email server applications will be required to support system functionality.,RAMS
The system must have the ability to create the INF42 outbound file for RMS Statistic based on the defined file layout based on the difference between the CFIS Web allocated totals stored in the Cost Allocation Screen (r 4.5.3) and the current matching values in the INF45 (r 3.1.4).,CS
The subsystem shall condition control store and distribute electrical power on the ROSETTA spacecraft.,EE
The system will be intended to run on Firefox 4 and above Google Chrome 10 and above and Internet Explorer 8 and above.,EE
The batteries shall be sized to cover all nominal spacecraft demand during the entire duration of the mission in cases of insufficient or no solar generator power.,EE
Valves shall be capable of an adjustment of ±20\% of the rated reduced pressure and lockable in any position within the range.,ME
Where more than one socket-outlet is connected to the same circuit the conduit shall be looped from one outlet box to the following on the same circuit.,EE
All software based AOCMS functionalities shall be executable in a single dedicated microprocessor.,CS
Running joints with long threads shall be kept to a minimum and locknuts shall be provided to ensure a strong mechanical and a continuous electrical joint.,ME